<?xml version="1.0" encoding="UTF-8"?>
<testng-results skipped="0" failed="0" ignored="0" total="1" passed="1">
  <reporter-output>
    <line>
      <![CDATA[<div "result">The user goes to the login page of the web site (PASSED : 58s)</div>]]>
    </line>
    <line>
      <![CDATA[<div "result">The user enters username &quot;Guatemala&quot; (PASSED : 3s)</div>]]>
    </line>
    <line>
      <![CDATA[<div "result">The user enters password &quot;Mexico&quot; (PASSED : 3s)</div>]]>
    </line>
    <line>
      <![CDATA[<div "result">The user clicks on login (PASSED : 0s)</div>]]>
    </line>
    <line>
      <![CDATA[<div "result">The user must see the welcome page (PASSED : 0s)</div>]]>
    </line>
  </reporter-output>
  <suite name="MainSuite" duration-ms="70214" started-at="2018-08-10T00:18:29Z" finished-at="2018-08-10T00:19:39Z">
    <groups>
      <group name="cucumber">
        <method signature="AbstractTestNGCucumberTests.runScenario(cucumber.api.testng.PickleEventWrapper, cucumber.api.testng.CucumberFeatureWrapper)[pri:0, instance:com.mytests.cucumber.testng.testcases.LoginPageTest@ff5b51f]" name="runScenario" class="cucumber.api.testng.AbstractTestNGCucumberTests"/>
      </group> <!-- cucumber -->
    </groups>
    <test name="Cucumber" duration-ms="70214" started-at="2018-08-10T00:18:29Z" finished-at="2018-08-10T00:19:39Z">
      <class name="com.mytests.cucumber.testng.testcases.LoginPageTest">
        <test-method status="PASS" signature="setUpClass()[pri:0, instance:com.mytests.cucumber.testng.testcases.LoginPageTest@ff5b51f]" name="setUpClass" is-config="true" duration-ms="184" started-at="2018-08-09T18:18:29Z" finished-at="2018-08-09T18:18:29Z">
          <reporter-output>
          </reporter-output>
        </test-method> <!-- setUpClass -->
        <test-method status="PASS" signature="runScenario(cucumber.api.testng.PickleEventWrapper, cucumber.api.testng.CucumberFeatureWrapper)[pri:0, instance:com.mytests.cucumber.testng.testcases.LoginPageTest@ff5b51f]" name="runScenario" duration-ms="69907" started-at="2018-08-09T18:18:29Z" description="Runs Cucumber Scenarios" data-provider="scenarios" finished-at="2018-08-09T18:19:39Z">
          <params>
            <param index="0">
              <value>
                <![CDATA["The user is able to log in"]]>
              </value>
            </param>
            <param index="1">
              <value>
                <![CDATA["The Login Page"]]>
              </value>
            </param>
          </params>
          <reporter-output>
            <line>
              <![CDATA[<div "result">The user goes to the login page of the web site (PASSED : 58s)</div>]]>
            </line>
            <line>
              <![CDATA[<div "result">The user enters username &quot;Guatemala&quot; (PASSED : 3s)</div>]]>
            </line>
            <line>
              <![CDATA[<div "result">The user enters password &quot;Mexico&quot; (PASSED : 3s)</div>]]>
            </line>
            <line>
              <![CDATA[<div "result">The user clicks on login (PASSED : 0s)</div>]]>
            </line>
            <line>
              <![CDATA[<div "result">The user must see the welcome page (PASSED : 0s)</div>]]>
            </line>
          </reporter-output>
        </test-method> <!-- runScenario -->
        <test-method status="PASS" signature="tearDownClass()[pri:0, instance:com.mytests.cucumber.testng.testcases.LoginPageTest@ff5b51f]" name="tearDownClass" is-config="true" duration-ms="49" started-at="2018-08-09T18:19:39Z" finished-at="2018-08-09T18:19:39Z">
          <reporter-output>
          </reporter-output>
        </test-method> <!-- tearDownClass -->
      </class> <!-- com.mytests.cucumber.testng.testcases.LoginPageTest -->
    </test> <!-- Cucumber -->
  </suite> <!-- MainSuite -->
</testng-results>
